%!PS-Adobe-2.0 EPSF-2.0
%%Title: affCn.fig
%%Creator: /usr/X11R6/bin/fig2dev Version 3.2 Patchlevel 4
%%CreationDate: Mon Nov 19 09:39:19 2007
%%For: redman@milou (,,,)
%%BoundingBox: 0 0 433 23
%%Magnification: 1.0000
%%EndComments
/$F2psDict 200 dict def
$F2psDict begin
$F2psDict /mtrx matrix put
/col-1 {0 setgray} bind def
/col0 {0.000 0.000 0.000 srgb} bind def
/col1 {0.000 0.000 1.000 srgb} bind def
/col2 {0.000 1.000 0.000 srgb} bind def
/col3 {0.000 1.000 1.000 srgb} bind def
/col4 {1.000 0.000 0.000 srgb} bind def
/col5 {1.000 0.000 1.000 srgb} bind def
/col6 {1.000 1.000 0.000 srgb} bind def
/col7 {1.000 1.000 1.000 srgb} bind def
/col8 {0.000 0.000 0.560 srgb} bind def
/col9 {0.000 0.000 0.690 srgb} bind def
/col10 {0.000 0.000 0.820 srgb} bind def
/col11 {0.530 0.810 1.000 srgb} bind def
/col12 {0.000 0.560 0.000 srgb} bind def
/col13 {0.000 0.690 0.000 srgb} bind def
/col14 {0.000 0.820 0.000 srgb} bind def
/col15 {0.000 0.560 0.560 srgb} bind def
/col16 {0.000 0.690 0.690 srgb} bind def
/col17 {0.000 0.820 0.820 srgb} bind def
/col18 {0.560 0.000 0.000 srgb} bind def
/col19 {0.690 0.000 0.000 srgb} bind def
/col20 {0.820 0.000 0.000 srgb} bind def
/col21 {0.560 0.000 0.560 srgb} bind def
/col22 {0.690 0.000 0.690 srgb} bind def
/col23 {0.820 0.000 0.820 srgb} bind def
/col24 {0.500 0.190 0.000 srgb} bind def
/col25 {0.630 0.250 0.000 srgb} bind def
/col26 {0.750 0.380 0.000 srgb} bind def
/col27 {1.000 0.500 0.500 srgb} bind def
/col28 {1.000 0.630 0.630 srgb} bind def
/col29 {1.000 0.750 0.750 srgb} bind def
/col30 {1.000 0.880 0.880 srgb} bind def
/col31 {1.000 0.840 0.000 srgb} bind def

end
save
newpath 0 23 moveto 0 0 lineto 433 0 lineto 433 23 lineto closepath clip newpath
-26.5 63.4 translate
1 -1 scale

/cp {closepath} bind def
/ef {eofill} bind def
/gr {grestore} bind def
/gs {gsave} bind def
/sa {save} bind def
/rs {restore} bind def
/l {lineto} bind def
/m {moveto} bind def
/rm {rmoveto} bind def
/n {newpath} bind def
/s {stroke} bind def
/sh {show} bind def
/slc {setlinecap} bind def
/slj {setlinejoin} bind def
/slw {setlinewidth} bind def
/srgb {setrgbcolor} bind def
/rot {rotate} bind def
/sc {scale} bind def
/sd {setdash} bind def
/ff {findfont} bind def
/sf {setfont} bind def
/scf {scalefont} bind def
/sw {stringwidth} bind def
/tr {translate} bind def
/tnt {dup dup currentrgbcolor
  4 -2 roll dup 1 exch sub 3 -1 roll mul add
  4 -2 roll dup 1 exch sub 3 -1 roll mul add
  4 -2 roll dup 1 exch sub 3 -1 roll mul add srgb}
  bind def
/shd {dup dup currentrgbcolor 4 -2 roll mul 4 -2 roll mul
  4 -2 roll mul srgb} bind def
 /DrawEllipse {
	/endangle exch def
	/startangle exch def
	/yrad exch def
	/xrad exch def
	/y exch def
	/x exch def
	/savematrix mtrx currentmatrix def
	x y tr xrad yrad sc 0 0 1 startangle endangle arc
	closepath
	savematrix setmatrix
	} def

/$F2psBegin {$F2psDict begin /$F2psEnteredState save def} def
/$F2psEnd {$F2psEnteredState restore end} def

$F2psBegin
10 setmiterlimit
0 slj 0 slc
 0.06000 0.06000 sc
%
% Fig objects follow
%
% 
% here starts figure with depth 50
% Ellipse
7.500 slw
n 600 900 150 150 0 360 DrawEllipse gs col0 s gr

% Polyline
n 750 900 m
 1650 900 l gs col0 s gr 
% Ellipse
n 1800 900 150 150 0 360 DrawEllipse gs col0 s gr

% Polyline
n 1950 900 m
 2850 900 l gs col0 s gr 
% Ellipse
n 3000 900 150 150 0 360 DrawEllipse gs col0 s gr

% Ellipse
n 6300 900 150 150 0 360 DrawEllipse gs col0 s gr

% Ellipse
n 5100 900 150 150 0 360 DrawEllipse gs col0 s gr

% Ellipse
n 7500 900 150 150 0 360 DrawEllipse gs col0 s gr

% Polyline
n 3150 900 m
 3600 900 l gs col0 s gr 
% Polyline
n 4500 900 m
 4950 900 l gs col0 s gr 
% Polyline
 [60] 0 sd
n 3600 900 m
 4500 900 l gs col0 s gr  [] 0 sd
% Polyline
n 5250 900 m
 6150 900 l gs col0 s gr 
% Polyline
n 6450 900 m
 7350 900 l gs col0 s gr 
/Times-Roman ff 180.00 scf sf
1125 825 m
gs 1 -1 sc (4) col0 sh gr
/Times-Roman ff 180.00 scf sf
6900 825 m
gs 1 -1 sc (4) col0 sh gr
% here ends figure;
$F2psEnd
rs
showpage
