%!PS-Adobe-2.0 EPSF-2.0
%%Title: construtriangulation.fig
%%Creator: /usr/bin/fig2dev Version 3.2 Patchlevel 5
%%CreationDate: Mon Oct 25 18:00:32 2010
%%For: edman@vinh358.math.umn.edu (Robert Edman,VinH 358,VinH 358)
%%BoundingBox: 0 0 146 264
%Magnification: 1.0000
%%EndComments
/MyAppDict 100 dict dup begin def
/$F2psDict 200 dict def
$F2psDict begin
$F2psDict /mtrx matrix put
/col-1 {0 setgray} bind def
/col0 {0.000 0.000 0.000 srgb} bind def
/col1 {0.000 0.000 1.000 srgb} bind def
/col2 {0.000 1.000 0.000 srgb} bind def
/col3 {0.000 1.000 1.000 srgb} bind def
/col4 {1.000 0.000 0.000 srgb} bind def
/col5 {1.000 0.000 1.000 srgb} bind def
/col6 {1.000 1.000 0.000 srgb} bind def
/col7 {1.000 1.000 1.000 srgb} bind def
/col8 {0.000 0.000 0.560 srgb} bind def
/col9 {0.000 0.000 0.690 srgb} bind def
/col10 {0.000 0.000 0.820 srgb} bind def
/col11 {0.530 0.810 1.000 srgb} bind def
/col12 {0.000 0.560 0.000 srgb} bind def
/col13 {0.000 0.690 0.000 srgb} bind def
/col14 {0.000 0.820 0.000 srgb} bind def
/col15 {0.000 0.560 0.560 srgb} bind def
/col16 {0.000 0.690 0.690 srgb} bind def
/col17 {0.000 0.820 0.820 srgb} bind def
/col18 {0.560 0.000 0.000 srgb} bind def
/col19 {0.690 0.000 0.000 srgb} bind def
/col20 {0.820 0.000 0.000 srgb} bind def
/col21 {0.560 0.000 0.560 srgb} bind def
/col22 {0.690 0.000 0.690 srgb} bind def
/col23 {0.820 0.000 0.820 srgb} bind def
/col24 {0.500 0.190 0.000 srgb} bind def
/col25 {0.630 0.250 0.000 srgb} bind def
/col26 {0.750 0.380 0.000 srgb} bind def
/col27 {1.000 0.500 0.500 srgb} bind def
/col28 {1.000 0.630 0.630 srgb} bind def
/col29 {1.000 0.750 0.750 srgb} bind def
/col30 {1.000 0.880 0.880 srgb} bind def
/col31 {1.000 0.840 0.000 srgb} bind def

end
save
newpath 0 264 moveto 0 0 lineto 146 0 lineto 146 264 lineto closepath clip newpath
-193.0 288.7 translate
1 -1 scale

% left30
<<
 /PatternType 1
 /PaintType 2
 /TilingType 2
 /BBox [-2 -4 10 5]
 /XStep 8
 /YStep 4
 /PaintProc
 {
  pop
  newpath
  .7 setlinewidth
  -2 -1 moveto
  12 6 rlineto
  stroke
 } bind

>>

matrix
makepattern
/P1 exch def

/cp {closepath} bind def
/ef {eofill} bind def
/gr {grestore} bind def
/gs {gsave} bind def
/sa {save} bind def
/rs {restore} bind def
/l {lineto} bind def
/m {moveto} bind def
/rm {rmoveto} bind def
/n {newpath} bind def
/s {stroke} bind def
/sh {show} bind def
/slc {setlinecap} bind def
/slj {setlinejoin} bind def
/slw {setlinewidth} bind def
/srgb {setrgbcolor} bind def
/rot {rotate} bind def
/sc {scale} bind def
/sd {setdash} bind def
/ff {findfont} bind def
/sf {setfont} bind def
/scf {scalefont} bind def
/sw {stringwidth} bind def
/tr {translate} bind def
/tnt {dup dup currentrgbcolor
  4 -2 roll dup 1 exch sub 3 -1 roll mul add
  4 -2 roll dup 1 exch sub 3 -1 roll mul add
  4 -2 roll dup 1 exch sub 3 -1 roll mul add srgb}
  bind def
/shd {dup dup currentrgbcolor 4 -2 roll mul 4 -2 roll mul
  4 -2 roll mul srgb} bind def
 /DrawEllipse {
	/endangle exch def
	/startangle exch def
	/yrad exch def
	/xrad exch def
	/y exch def
	/x exch def
	/savematrix mtrx currentmatrix def
	x y tr xrad yrad sc 0 0 1 startangle endangle arc
	closepath
	savematrix setmatrix
	} def

/$F2psBegin {$F2psDict begin /$F2psEnteredState save def} def
/$F2psEnd {$F2psEnteredState restore end} def

$F2psBegin
10 setmiterlimit
0 slj 0 slc
 0.06000 0.06000 sc
%
% Fig objects follow
%
% 
% here starts figure with depth 52
% Polyline
0 slj
0 slc
7.500 slw
n 3312 3610 m 5575 3291 l 4221 4201 l
 3316 3606 l gs col11 1.00 shd ef gr gs col0 s gr 
% here ends figure;
% 
% here starts figure with depth 50
% Ellipse
7.500 slw
n 3300 3600 75 75 0 360 DrawEllipse gs 0.00 setgray ef gr gs col0 s gr

% Ellipse
n 4224 4169 75 75 0 360 DrawEllipse gs 0.00 setgray ef gr gs col0 s gr

% Ellipse
n 4654 3889 75 75 0 360 DrawEllipse gs 0.00 setgray ef gr gs col0 s gr

% Ellipse
n 5104 3579 75 75 0 360 DrawEllipse gs 0.00 setgray ef gr gs col0 s gr

% Ellipse
n 5554 3289 75 75 0 360 DrawEllipse gs 0.00 setgray ef gr gs col0 s gr

% Ellipse
n 4306 497 75 75 0 360 DrawEllipse gs 0.00 setgray ef gr gs col0 s gr

% Polyline
0 slj
0 slc
n 3300 3600 m
 3300 900 l 
% Fill with pattern background color
gs /DeviceRGB setcolorspace 0.00 0.00 0.00 setcolor fill gr

% Fill with pattern pen color
gs /DeviceRGB setcolorspace 0.00 0.00 0.00 P1 setpattern fill gr

gs col0 s gr 
% Polyline
n 5100 4800 m
 3300 3600 l 
% Fill with pattern background color
gs /DeviceRGB setcolorspace 0.00 0.00 0.00 setcolor fill gr

% Fill with pattern pen color
gs /DeviceRGB setcolorspace 0.00 0.00 0.00 P1 setpattern fill gr

gs col0 s gr 
% Polyline
n 5100 2408 m
 3300 3608 l 
% Fill with pattern background color
gs /DeviceRGB setcolorspace 0.00 0.00 0.00 setcolor fill gr

% Fill with pattern pen color
gs /DeviceRGB setcolorspace 0.00 0.00 0.00 P1 setpattern fill gr

gs col0 s gr 
% Polyline
n 3296 3604 m
 4299 502 l gs col0 s gr 
% Polyline
n 4210 4192 m
 4308 486 l gs col0 s gr 
% Polyline
n 5563 3296 m
 4316 497 l gs col0 s gr 
% Polyline
n 5129 3605 m
 4308 498 l gs col0 s gr 
% Polyline
n 4671 3905 m 4308 496 l
 4308 531 l gs col0 s gr 
/Times-Roman ff 180.00 scf sf
4470 450 m
gs 1 -1 sc  270.0 rot (8) col0 sh gr
% here ends figure;
$F2psEnd
rs
end
showpage
%%Trailer
%EOF
