#FIG 3.2
Landscape
Center
Inches
Letter  
100.00
Single
-2
1200 2
1 3 0 1 0 0 50 -1 20 0.000 1 0.0000 -1500 2100 75 75 -1500 2100 -1425 2100
1 3 0 1 0 0 50 -1 20 0.000 1 0.0000 -1500 3900 75 75 -1500 3900 -1425 3900
1 3 0 1 0 0 50 -1 20 0.000 1 0.0000 300 3900 75 75 300 3900 375 3900
1 3 0 1 0 0 50 -1 20 0.000 1 0.0000 900 2100 75 75 900 2100 975 2100
1 3 0 1 0 0 50 -1 20 0.000 1 0.0000 900 3900 75 75 900 3900 975 3900
2 1 0 1 0 7 50 -1 -1 0.000 0 0 -1 0 0 2
	 -2250 3300 -1950 3300
2 1 0 1 0 7 50 -1 -1 0.000 0 0 -1 0 0 2
	 -2250 2700 -1950 2700
2 1 0 1 0 7 50 -1 -1 0.000 0 0 -1 0 0 2
	 -2250 2100 -1950 2100
2 1 0 1 0 7 50 -1 -1 0.000 0 0 -1 0 0 2
	 -1500 3750 -1500 4050
2 1 0 1 0 7 50 -1 -1 0.000 0 0 -1 0 0 2
	 -900 3750 -900 4050
2 1 0 1 0 7 50 -1 -1 0.000 0 0 -1 0 0 2
	 -1500 2100 -1500 3900
2 1 0 1 0 7 50 -1 -1 0.000 0 0 -1 0 0 2
	 -2400 3900 -600 3900
2 1 0 1 0 7 50 -1 -1 0.000 0 0 -1 0 0 2
	 -2100 4200 -2100 1800
2 1 0 5 0 7 50 -1 -1 0.000 0 0 -1 0 0 2
	 -1500 2100 -1500 3900
2 1 0 1 0 7 50 -1 -1 0.000 0 0 -1 0 0 2
	 150 3300 450 3300
2 1 0 1 0 7 50 -1 -1 0.000 0 0 -1 0 0 2
	 150 2700 450 2700
2 1 0 1 0 7 50 -1 -1 0.000 0 0 -1 0 0 2
	 150 2100 450 2100
2 1 0 1 0 7 50 -1 -1 0.000 0 0 -1 0 0 2
	 900 3750 900 4050
2 1 0 1 0 7 50 -1 -1 0.000 0 0 -1 0 0 2
	 1500 3750 1500 4050
2 1 0 1 0 0 50 -1 20 0.000 0 0 -1 0 0 2
	 300 3900 900 2100
2 1 0 1 0 7 50 -1 -1 0.000 0 0 -1 0 0 2
	 900 2100 900 3900
2 1 0 1 0 7 50 -1 -1 0.000 0 0 -1 0 0 2
	 0 3900 1800 3900
2 1 0 1 0 7 50 -1 -1 0.000 0 0 -1 0 0 2
	 300 4200 300 1800
2 1 0 1 0 11 52 -1 20 0.000 0 0 -1 0 0 4
	 300 3900 900 2100 900 3900 300 3900
