%!PS-Adobe-2.0
%%Title: examplepolytopetriangulations.fig
%%Creator: fig2dev Version 3.2 Patchlevel 4
%%CreationDate: Mon Oct 22 23:31:54 2007
%%For: redman@milou (,,,)
%%Orientation: Landscape
%%Pages: 1
%%BoundingBox: 0 0 612 792
%%DocumentPaperSizes: letter
%%BeginSetup
[{
%BeginFeature: *PageRegion Letter
<</PageSize [612 792]>> setpagedevice
%EndFeature
} stopped cleartomark
%%EndSetup
%%Magnification: 1.0000
%%EndComments
/$F2psDict 200 dict def
$F2psDict begin
$F2psDict /mtrx matrix put
/col-1 {0 setgray} bind def
/col0 {0.000 0.000 0.000 srgb} bind def
/col1 {0.000 0.000 1.000 srgb} bind def
/col2 {0.000 1.000 0.000 srgb} bind def
/col3 {0.000 1.000 1.000 srgb} bind def
/col4 {1.000 0.000 0.000 srgb} bind def
/col5 {1.000 0.000 1.000 srgb} bind def
/col6 {1.000 1.000 0.000 srgb} bind def
/col7 {1.000 1.000 1.000 srgb} bind def
/col8 {0.000 0.000 0.560 srgb} bind def
/col9 {0.000 0.000 0.690 srgb} bind def
/col10 {0.000 0.000 0.820 srgb} bind def
/col11 {0.530 0.810 1.000 srgb} bind def
/col12 {0.000 0.560 0.000 srgb} bind def
/col13 {0.000 0.690 0.000 srgb} bind def
/col14 {0.000 0.820 0.000 srgb} bind def
/col15 {0.000 0.560 0.560 srgb} bind def
/col16 {0.000 0.690 0.690 srgb} bind def
/col17 {0.000 0.820 0.820 srgb} bind def
/col18 {0.560 0.000 0.000 srgb} bind def
/col19 {0.690 0.000 0.000 srgb} bind def
/col20 {0.820 0.000 0.000 srgb} bind def
/col21 {0.560 0.000 0.560 srgb} bind def
/col22 {0.690 0.000 0.690 srgb} bind def
/col23 {0.820 0.000 0.820 srgb} bind def
/col24 {0.500 0.190 0.000 srgb} bind def
/col25 {0.630 0.250 0.000 srgb} bind def
/col26 {0.750 0.380 0.000 srgb} bind def
/col27 {1.000 0.500 0.500 srgb} bind def
/col28 {1.000 0.630 0.630 srgb} bind def
/col29 {1.000 0.750 0.750 srgb} bind def
/col30 {1.000 0.880 0.880 srgb} bind def
/col31 {1.000 0.840 0.000 srgb} bind def

end
save
newpath 0 792 moveto 0 0 lineto 612 0 lineto 612 792 lineto closepath clip newpath
126.0 153.0 translate

/cp {closepath} bind def
/ef {eofill} bind def
/gr {grestore} bind def
/gs {gsave} bind def
/sa {save} bind def
/rs {restore} bind def
/l {lineto} bind def
/m {moveto} bind def
/rm {rmoveto} bind def
/n {newpath} bind def
/s {stroke} bind def
/sh {show} bind def
/slc {setlinecap} bind def
/slj {setlinejoin} bind def
/slw {setlinewidth} bind def
/srgb {setrgbcolor} bind def
/rot {rotate} bind def
/sc {scale} bind def
/sd {setdash} bind def
/ff {findfont} bind def
/sf {setfont} bind def
/scf {scalefont} bind def
/sw {stringwidth} bind def
/tr {translate} bind def
/tnt {dup dup currentrgbcolor
  4 -2 roll dup 1 exch sub 3 -1 roll mul add
  4 -2 roll dup 1 exch sub 3 -1 roll mul add
  4 -2 roll dup 1 exch sub 3 -1 roll mul add srgb}
  bind def
/shd {dup dup currentrgbcolor 4 -2 roll mul 4 -2 roll mul
  4 -2 roll mul srgb} bind def
 /DrawEllipse {
	/endangle exch def
	/startangle exch def
	/yrad exch def
	/xrad exch def
	/y exch def
	/x exch def
	/savematrix mtrx currentmatrix def
	x y tr xrad yrad sc 0 0 1 startangle endangle arc
	closepath
	savematrix setmatrix
	} def

/$F2psBegin {$F2psDict begin /$F2psEnteredState save def} def
/$F2psEnd {$F2psEnteredState restore end} def

$F2psBegin
10 setmiterlimit
0 slj 0 slc
 0.06000 0.06000 sc
%%Page: 1 1
%%BeginPageSetup
 90 rotate
1 -1 scale
%%EndPageSetup
%
% Fig objects follow
%
% 
% here starts figure with depth 52
% Polyline
7.500 slw
n 300 3900 m 900 2100 l 900 3900 l
 300 3900 l  cp gs col11 1.00 shd ef gr gs col0 s gr 
% Polyline
n 2400 3900 m 3000 2100 l 3000 3900 l
 2400 3900 l  cp gs col11 1.00 shd ef gr gs col0 s gr 
% Polyline
n 4500 3900 m 5100 2100 l 5100 3900 l
 4500 3900 l  cp gs col11 1.00 shd ef gr gs col0 s gr 
% Polyline
n 6600 3900 m 7200 2100 l 7200 3900 l
 6600 3900 l  cp gs col11 1.00 shd ef gr gs col0 s gr 
% here ends figure;
% 
% here starts figure with depth 50
% Ellipse
7.500 slw
n 300 3900 75 75 0 360 DrawEllipse gs 0.00 setgray ef gr gs col0 s gr

% Ellipse
n 900 2100 75 75 0 360 DrawEllipse gs 0.00 setgray ef gr gs col0 s gr

% Ellipse
n 900 3900 75 75 0 360 DrawEllipse gs 0.00 setgray ef gr gs col0 s gr

% Polyline
n 300 3900 m
 900 2100 l gs 0.00 setgray ef gr gs col0 s gr 
% Polyline
n 900 2100 m
 900 3900 l gs col0 s gr 
% Polyline
n 0 3900 m
 1800 3900 l gs col0 s gr 
% Polyline
n 300 4200 m
 300 1800 l gs col0 s gr 
% Polyline
60.000 slw
n 900 2100 m
 900 3900 l gs col0 s gr 
% Ellipse
7.500 slw
n 2400 3900 75 75 0 360 DrawEllipse gs 0.00 setgray ef gr gs col0 s gr

% Ellipse
n 3000 2100 75 75 0 360 DrawEllipse gs 0.00 setgray ef gr gs col0 s gr

% Ellipse
n 3000 3900 75 75 0 360 DrawEllipse gs 0.00 setgray ef gr gs col0 s gr

% Polyline
n 2400 3900 m
 3000 2100 l gs 0.00 setgray ef gr gs col0 s gr 
% Polyline
n 3000 2100 m
 3000 3900 l gs col0 s gr 
% Polyline
n 2100 3900 m
 3900 3900 l gs col0 s gr 
% Polyline
n 2400 4200 m
 2400 1800 l gs col0 s gr 
% Polyline
60.000 slw
n 3000 2100 m
 3000 3900 l gs col0 s gr 
% Ellipse
7.500 slw
n 4500 3900 75 75 0 360 DrawEllipse gs 0.00 setgray ef gr gs col0 s gr

% Ellipse
n 5100 2100 75 75 0 360 DrawEllipse gs 0.00 setgray ef gr gs col0 s gr

% Ellipse
n 5100 3900 75 75 0 360 DrawEllipse gs 0.00 setgray ef gr gs col0 s gr

% Polyline
n 4500 3900 m
 5100 2100 l gs 0.00 setgray ef gr gs col0 s gr 
% Polyline
n 5100 2100 m
 5100 3900 l gs col0 s gr 
% Polyline
n 4200 3900 m
 6000 3900 l gs col0 s gr 
% Polyline
n 4500 4200 m
 4500 1800 l gs col0 s gr 
% Polyline
60.000 slw
n 5100 2100 m
 5100 3900 l gs col0 s gr 
% Ellipse
7.500 slw
n 6600 3900 75 75 0 360 DrawEllipse gs 0.00 setgray ef gr gs col0 s gr

% Ellipse
n 7200 2100 75 75 0 360 DrawEllipse gs 0.00 setgray ef gr gs col0 s gr

% Ellipse
n 7200 3900 75 75 0 360 DrawEllipse gs 0.00 setgray ef gr gs col0 s gr

% Polyline
n 6600 3900 m
 7200 2100 l gs 0.00 setgray ef gr gs col0 s gr 
% Polyline
n 7200 2100 m
 7200 3900 l gs col0 s gr 
% Polyline
n 6300 3900 m
 8100 3900 l gs col0 s gr 
% Polyline
n 6600 4200 m
 6600 1800 l gs col0 s gr 
% Polyline
60.000 slw
n 7200 2100 m
 7200 3900 l gs col0 s gr 
% Polyline
7.500 slw
n 450 3300 m
 150 3300 l gs col0 s gr 
% Polyline
n 150 2700 m
 450 2700 l gs col0 s gr 
% Polyline
n 150 2100 m
 450 2100 l gs col0 s gr 
% Polyline
n 1500 4050 m
 1500 3750 l gs col0 s gr 
% Polyline
n 900 4050 m
 900 3750 l gs col0 s gr 
% Polyline
n 2550 3300 m
 2250 3300 l gs col0 s gr 
% Polyline
n 2250 2700 m
 2550 2700 l gs col0 s gr 
% Polyline
n 2250 2100 m
 2550 2100 l gs col0 s gr 
% Polyline
n 3600 4050 m
 3600 3750 l gs col0 s gr 
% Polyline
n 3000 4050 m
 3000 3750 l gs col0 s gr 
% Polyline
n 4650 3300 m
 4350 3300 l gs col0 s gr 
% Polyline
n 4350 2700 m
 4650 2700 l gs col0 s gr 
% Polyline
n 4350 2100 m
 4650 2100 l gs col0 s gr 
% Polyline
n 5700 4050 m
 5700 3750 l gs col0 s gr 
% Polyline
n 5100 4050 m
 5100 3750 l gs col0 s gr 
% Polyline
n 6750 3300 m
 6450 3300 l gs col0 s gr 
% Polyline
n 6450 2700 m
 6750 2700 l gs col0 s gr 
% Polyline
n 6450 2100 m
 6750 2100 l gs col0 s gr 
% Polyline
n 7800 4050 m
 7800 3750 l gs col0 s gr 
% Polyline
n 7200 4050 m
 7200 3750 l gs col0 s gr 
% Ellipse
n 3000 2700 75 75 0 360 DrawEllipse gs 0.00 setgray ef gr gs col0 s gr

% Ellipse
n 5100 3300 75 75 0 360 DrawEllipse gs 0.00 setgray ef gr gs col0 s gr

% Ellipse
n 7200 3300 75 75 0 360 DrawEllipse gs 0.00 setgray ef gr gs col0 s gr

% Ellipse
n 7200 2700 75 75 0 360 DrawEllipse gs 0.00 setgray ef gr gs col0 s gr

% Polyline
n 2400 3900 m
 3000 2700 l gs col0 s gr 
% Polyline
n 6600 3900 m
 7200 2700 l gs col0 s gr 
% Polyline
n 4500 3900 m
 5100 3300 l gs col0 s gr 
% Polyline
n 6600 3900 m
 7200 3300 l gs col0 s gr 
% here ends figure;
$F2psEnd
rs
showpage
