#FIG 3.2
Landscape
Center
Inches
Letter  
100.00
Single
-2
1200 2
1 3 0 1 0 0 40 0 41 0.000 1 0.0000 4200 4200 106 106 4200 4200 4306 4200
1 3 0 1 0 0 40 0 41 0.000 1 0.0000 3300 3600 106 106 3300 3600 3406 3600
1 3 0 1 0 0 40 0 20 0.000 1 0.0000 4200 2700 106 106 4200 2700 4306 2700
1 3 0 1 0 0 40 0 41 0.000 1 0.0000 5079 2116 106 106 5079 2116 5185 2116
1 3 0 1 0 0 40 0 41 0.000 1 0.0000 5100 3600 106 106 5100 3600 5206 3600
2 1 0 1 0 0 50 0 41 0.000 0 0 -1 0 0 2
	 3300 3600 3300 900
2 1 0 1 0 0 50 0 41 0.000 0 0 -1 0 0 2
	 5100 4800 3300 3600
2 1 0 1 0 0 50 0 41 0.000 0 0 -1 0 0 2
	 5013 2458 3213 3658
2 1 0 1 0 0 50 0 41 0.000 0 0 -1 0 0 2
	 3300 3600 1500 2400
2 1 0 1 0 0 50 0 41 0.000 0 0 -1 0 0 2
	 3300 3600 1500 4800
2 1 0 1 0 0 50 0 41 0.000 0 0 -1 0 0 2
	 5637 2042 3837 3242
2 1 0 2 0 7 50 -1 -1 0.000 0 0 -1 0 0 2
	 3300 3600 5100 2100
2 1 0 2 0 7 50 -1 -1 0.000 0 0 -1 0 0 2
	 3300 3600 5100 3600
2 1 0 3 0 7 50 -1 -1 0.000 0 0 -1 0 0 2
	 5100 2100 4200 2700
2 1 0 3 0 7 50 -1 -1 0.000 0 0 -1 0 0 2
	 4200 4200 5100 3600
2 1 0 3 0 7 50 -1 -1 0.000 0 0 -1 0 0 2
	 3351 3634 4251 4234
2 1 0 3 0 7 50 -1 -1 0.000 0 0 -1 0 0 2
	 3300 3600 4200 2700
2 1 0 3 0 7 40 -1 -1 0.000 0 0 -1 0 0 2
	 4200 2700 4200 4200
2 1 0 8 7 7 45 -1 -1 0.000 0 0 -1 0 0 2
	 4200 2700 4200 4200
2 1 0 8 7 7 45 -1 -1 0.000 0 0 -1 0 0 2
	 5100 2133 5100 3633
2 1 0 3 0 7 40 -1 -1 0.000 0 0 -1 0 0 2
	 5100 2100 5100 3600
4 0 0 50 0 0 12 0.0000 4 135 90 1350 4950 y\001
4 0 0 50 0 0 12 0.0000 4 90 90 5250 4950 x\001
4 0 0 50 0 0 12 0.0000 4 90 90 3300 750 z\001
4 0 0 50 0 0 12 0.0000 4 180 405 5250 3000 plane\001
