#FIG 3.2  Produced by xfig version 3.2.5
Landscape
Center
Inches
Letter  
100.00
Single
-2
1200 2
0 32 #ff6d41
6 3150 1350 3450 3450
1 3 0 1 0 0 45 -1 20 0.000 1 0.0000 3300 2400 75 75 3300 2400 3375 2400
1 3 0 1 0 0 45 -1 20 0.000 1 0.0000 3300 3300 75 75 3300 3300 3375 3300
1 3 0 1 0 0 45 -1 20 0.000 1 0.0000 3300 1500 75 75 3300 1500 3375 1500
-6
6 5850 1350 6150 3450
1 3 0 1 0 0 45 -1 20 0.000 1 0.0000 6000 2400 75 75 6000 2400 6075 2400
1 3 0 1 0 0 45 -1 20 0.000 1 0.0000 6000 3300 75 75 6000 3300 6075 3300
1 3 0 1 0 0 45 -1 20 0.000 1 0.0000 6000 1500 75 75 6000 1500 6075 1500
-6
6 5100 300 5175 4500
2 1 0 1 0 7 50 -1 -1 0.000 0 0 -1 0 0 2
	 5100 2100 5100 4500
2 1 0 1 0 7 50 -1 -1 0.000 0 0 -1 0 0 2
	 5100 300 5100 2700
-6
1 3 0 1 0 0 45 -1 20 0.000 1 0.0000 4200 3300 75 75 4200 3300 4275 3300
1 3 0 1 0 0 45 -1 20 0.000 1 0.0000 5100 2400 75 75 5100 2400 5175 2400
1 3 0 1 0 0 45 -1 20 0.000 1 0.0000 5100 1500 75 75 5100 1500 5175 1500
1 3 0 1 0 0 45 -1 20 0.000 1 0.0000 5100 3300 75 75 5100 3300 5175 3300
1 3 0 1 0 0 45 -1 20 0.000 1 0.0000 4200 2400 75 75 4200 2400 4275 2400
1 3 0 1 0 0 45 -1 20 0.000 1 0.0000 4200 1500 75 75 4200 1500 4275 1500
1 3 0 1 0 0 45 -1 20 0.000 1 0.0000 6000 4200 75 75 6000 4200 6075 4200
1 3 0 1 0 0 45 -1 20 0.000 1 0.0000 6000 600 75 75 6000 600 6075 600
1 3 0 1 0 0 45 -1 20 0.000 1 0.0000 3300 600 75 75 3300 600 3375 600
1 3 0 1 0 0 45 -1 20 0.000 1 0.0000 4200 600 75 75 4200 600 4275 600
1 3 0 1 0 0 45 -1 20 0.000 1 0.0000 5100 600 75 75 5100 600 5175 600
1 3 0 1 0 0 45 -1 20 0.000 1 0.0000 5100 4200 75 75 5100 4200 5175 4200
1 3 0 1 0 0 45 -1 20 0.000 1 0.0000 4200 4200 75 75 4200 4200 4275 4200
1 3 0 1 0 0 45 -1 20 0.000 1 0.0000 3300 4200 75 75 3300 4200 3375 4200
1 3 0 1 0 0 45 -1 20 0.000 1 0.0000 6900 2400 75 75 6900 2400 6975 2400
1 3 0 1 0 0 45 -1 20 0.000 1 0.0000 6900 1500 75 75 6900 1500 6975 1500
1 3 0 1 0 0 45 -1 20 0.000 1 0.0000 6900 600 75 75 6900 600 6975 600
1 3 0 1 0 0 45 -1 20 0.000 1 0.0000 6900 3300 75 75 6900 3300 6975 3300
1 3 0 1 0 0 45 -1 20 0.000 1 0.0000 6900 4200 75 75 6900 4200 6975 4200
2 1 0 1 0 7 50 -1 -1 0.000 0 0 -1 0 0 2
	 5400 2400 3000 2400
2 1 0 1 0 7 50 -1 -1 0.000 0 0 -1 0 0 2
	 5100 2250 5100 2550
2 1 0 1 0 7 50 -1 -1 0.000 0 0 -1 0 0 2
	 3300 2250 3300 2550
2 1 0 1 0 7 50 -1 -1 0.000 0 0 -1 0 0 2
	 6300 2400 3900 2400
2 1 0 1 0 7 50 -1 -1 0.000 0 0 -1 0 0 2
	 3300 2250 3300 2550
2 1 0 1 0 7 50 -1 -1 0.000 0 0 -1 0 0 2
	 4200 2250 4200 2550
2 1 0 1 0 7 50 -1 -1 0.000 0 0 -1 0 0 2
	 4950 600 5250 600
2 1 0 1 0 7 50 -1 -1 0.000 0 0 -1 0 0 2
	 4950 4200 5250 4200
2 1 0 1 0 7 50 -1 -1 0.000 0 0 -1 0 0 2
	 4950 3300 5250 3300
2 1 0 1 0 7 50 -1 -1 0.000 0 0 -1 0 0 2
	 4950 1500 5250 1500
2 1 0 1 0 7 50 -1 -1 0.000 0 0 -1 0 0 2
	 7200 2400 4800 2400
2 4 0 1 0 7 50 -1 -1 0.000 0 0 7 0 0 5
	 7350 4650 7350 150 2850 150 2850 4650 7350 4650
2 1 0 1 0 7 50 -1 -1 0.000 0 0 -1 0 0 2
	 6000 2250 6000 2550
2 1 0 1 0 7 50 -1 -1 0.000 0 0 -1 0 0 2
	 6900 2250 6900 2550
2 1 0 1 0 32 52 -1 20 0.000 0 0 -1 0 0 5
	 5550 1050 6450 1950 5550 2850 4650 1950 5550 1050
2 1 0 1 0 29 57 -1 20 0.000 0 0 -1 0 0 4
	 3300 600 6900 4200 6900 600 3300 600
4 0 0 50 -1 0 12 0.0000 4 180 600 4725 2625 edge34\001
