%!PS-Adobe-2.0 EPSF-2.0
%%Title: triangulations.fig
%%Creator: /usr/bin/fig2dev Version 3.2 Patchlevel 5
%%CreationDate: Mon Oct 25 18:00:49 2010
%%For: edman@vinh358.math.umn.edu (Robert Edman,VinH 358,VinH 358)
%%BoundingBox: 0 0 286 141
%Magnification: 1.0000
%%EndComments
/MyAppDict 100 dict dup begin def
/$F2psDict 200 dict def
$F2psDict begin
$F2psDict /mtrx matrix put
/col-1 {0 setgray} bind def
/col0 {0.000 0.000 0.000 srgb} bind def
/col1 {0.000 0.000 1.000 srgb} bind def
/col2 {0.000 1.000 0.000 srgb} bind def
/col3 {0.000 1.000 1.000 srgb} bind def
/col4 {1.000 0.000 0.000 srgb} bind def
/col5 {1.000 0.000 1.000 srgb} bind def
/col6 {1.000 1.000 0.000 srgb} bind def
/col7 {1.000 1.000 1.000 srgb} bind def
/col8 {0.000 0.000 0.560 srgb} bind def
/col9 {0.000 0.000 0.690 srgb} bind def
/col10 {0.000 0.000 0.820 srgb} bind def
/col11 {0.530 0.810 1.000 srgb} bind def
/col12 {0.000 0.560 0.000 srgb} bind def
/col13 {0.000 0.690 0.000 srgb} bind def
/col14 {0.000 0.820 0.000 srgb} bind def
/col15 {0.000 0.560 0.560 srgb} bind def
/col16 {0.000 0.690 0.690 srgb} bind def
/col17 {0.000 0.820 0.820 srgb} bind def
/col18 {0.560 0.000 0.000 srgb} bind def
/col19 {0.690 0.000 0.000 srgb} bind def
/col20 {0.820 0.000 0.000 srgb} bind def
/col21 {0.560 0.000 0.560 srgb} bind def
/col22 {0.690 0.000 0.690 srgb} bind def
/col23 {0.820 0.000 0.820 srgb} bind def
/col24 {0.500 0.190 0.000 srgb} bind def
/col25 {0.630 0.250 0.000 srgb} bind def
/col26 {0.750 0.380 0.000 srgb} bind def
/col27 {1.000 0.500 0.500 srgb} bind def
/col28 {1.000 0.630 0.630 srgb} bind def
/col29 {1.000 0.750 0.750 srgb} bind def
/col30 {1.000 0.880 0.880 srgb} bind def
/col31 {1.000 0.840 0.000 srgb} bind def

end
save
newpath 0 141 moveto 0 0 lineto 286 0 lineto 286 141 lineto closepath clip newpath
-65.2 171.9 translate
1 -1 scale

% left30
<<
 /PatternType 1
 /PaintType 2
 /TilingType 2
 /BBox [-2 -4 10 5]
 /XStep 8
 /YStep 4
 /PaintProc
 {
  pop
  newpath
  .7 setlinewidth
  -2 -1 moveto
  12 6 rlineto
  stroke
 } bind

>>

matrix
makepattern
/P1 exch def

/cp {closepath} bind def
/ef {eofill} bind def
/gr {grestore} bind def
/gs {gsave} bind def
/sa {save} bind def
/rs {restore} bind def
/l {lineto} bind def
/m {moveto} bind def
/rm {rmoveto} bind def
/n {newpath} bind def
/s {stroke} bind def
/sh {show} bind def
/slc {setlinecap} bind def
/slj {setlinejoin} bind def
/slw {setlinewidth} bind def
/srgb {setrgbcolor} bind def
/rot {rotate} bind def
/sc {scale} bind def
/sd {setdash} bind def
/ff {findfont} bind def
/sf {setfont} bind def
/scf {scalefont} bind def
/sw {stringwidth} bind def
/tr {translate} bind def
/tnt {dup dup currentrgbcolor
  4 -2 roll dup 1 exch sub 3 -1 roll mul add
  4 -2 roll dup 1 exch sub 3 -1 roll mul add
  4 -2 roll dup 1 exch sub 3 -1 roll mul add srgb}
  bind def
/shd {dup dup currentrgbcolor 4 -2 roll mul 4 -2 roll mul
  4 -2 roll mul srgb} bind def
 /DrawEllipse {
	/endangle exch def
	/startangle exch def
	/yrad exch def
	/xrad exch def
	/y exch def
	/x exch def
	/savematrix mtrx currentmatrix def
	x y tr xrad yrad sc 0 0 1 startangle endangle arc
	closepath
	savematrix setmatrix
	} def

/$F2psBegin {$F2psDict begin /$F2psEnteredState save def} def
/$F2psEnd {$F2psEnteredState restore end} def

$F2psBegin
10 setmiterlimit
0 slj 0 slc
 0.06000 0.06000 sc
%
% Fig objects follow
%
% 
% here starts figure with depth 50
% Ellipse
7.500 slw
n 1200 900 106 106 0 360 DrawEllipse 
% Fill with pattern background color
gs /DeviceRGB setcolorspace 0.00 0.00 0.00 setcolor fill gr

% Fill with pattern pen color
gs /DeviceRGB setcolorspace 0.00 0.00 0.00 P1 setpattern fill gr

gs col0 s gr

% Ellipse
n 1200 2431 106 106 0 360 DrawEllipse 
% Fill with pattern background color
gs /DeviceRGB setcolorspace 0.00 0.00 0.00 setcolor fill gr

% Fill with pattern pen color
gs /DeviceRGB setcolorspace 0.00 0.00 0.00 P1 setpattern fill gr

gs col0 s gr

% Ellipse
n 2700 2431 106 106 0 360 DrawEllipse 
% Fill with pattern background color
gs /DeviceRGB setcolorspace 0.00 0.00 0.00 setcolor fill gr

% Fill with pattern pen color
gs /DeviceRGB setcolorspace 0.00 0.00 0.00 P1 setpattern fill gr

gs col0 s gr

% Ellipse
n 2700 900 106 106 0 360 DrawEllipse 
% Fill with pattern background color
gs /DeviceRGB setcolorspace 0.00 0.00 0.00 setcolor fill gr

% Fill with pattern pen color
gs /DeviceRGB setcolorspace 0.00 0.00 0.00 P1 setpattern fill gr

gs col0 s gr

% Ellipse
n 4216 2421 106 106 0 360 DrawEllipse 
% Fill with pattern background color
gs /DeviceRGB setcolorspace 0.00 0.00 0.00 setcolor fill gr

% Fill with pattern pen color
gs /DeviceRGB setcolorspace 0.00 0.00 0.00 P1 setpattern fill gr

gs col0 s gr

% Ellipse
n 4200 900 106 106 0 360 DrawEllipse 
% Fill with pattern background color
gs /DeviceRGB setcolorspace 0.00 0.00 0.00 setcolor fill gr

% Fill with pattern pen color
gs /DeviceRGB setcolorspace 0.00 0.00 0.00 P1 setpattern fill gr

gs col0 s gr

% Ellipse
n 5700 2400 106 106 0 360 DrawEllipse 
% Fill with pattern background color
gs /DeviceRGB setcolorspace 0.00 0.00 0.00 setcolor fill gr

% Fill with pattern pen color
gs /DeviceRGB setcolorspace 0.00 0.00 0.00 P1 setpattern fill gr

gs col0 s gr

% Ellipse
n 5731 900 106 106 0 360 DrawEllipse 
% Fill with pattern background color
gs /DeviceRGB setcolorspace 0.00 0.00 0.00 setcolor fill gr

% Fill with pattern pen color
gs /DeviceRGB setcolorspace 0.00 0.00 0.00 P1 setpattern fill gr

gs col0 s gr

% Polyline
0 slj
0 slc
n 2700 2400 m 2700 900 l 1200 900 l 1200 2400 l 2700 2400 l
 1200 900 l gs col0 s gr 
% Polyline
n 5775 900 m 4200 900 l 4200 2400 l 5700 2400 l 5700 900 l
 4200 2400 l gs col0 s gr 
/Times-Roman ff 180.00 scf sf
1200 675 m
gs 1 -1 sc (1) col0 sh gr
/Times-Roman ff 180.00 scf sf
2700 675 m
gs 1 -1 sc (2) col0 sh gr
/Times-Roman ff 180.00 scf sf
4200 750 m
gs 1 -1 sc (1) col0 sh gr
/Times-Roman ff 180.00 scf sf
5700 750 m
gs 1 -1 sc (2) col0 sh gr
/Times-Roman ff 180.00 scf sf
5700 2850 m
gs 1 -1 sc (4) col0 sh gr
/Times-Roman ff 180.00 scf sf
1200 2850 m
gs 1 -1 sc (3) col0 sh gr
/Times-Roman ff 180.00 scf sf
2700 2850 m
gs 1 -1 sc (4) col0 sh gr
/Times-Roman ff 180.00 scf sf
4200 2850 m
gs 1 -1 sc (3) col0 sh gr
% here ends figure;
$F2psEnd
rs
end
showpage
%%Trailer
%EOF
